{
    "post1":{
        "Aharon horovitz":"hi to all",
        "comments":{
            "comment1":{"smuel hrovitz":"hi to you"},
            "comment2":{"micael doron":"I want to say somthing smart but I..."}
        }
     },
     "post2":{
        "Michael doron":"I am so happy",
        "comments":{
            "comment1":{"Shmuel hrovitz":"why"},
            "comment2":{"Michael doron":"becuse I got a bonus"}
        }
     },
     "post3":{
        "Jack rotenberg":"the leil haseder was grate",
        "comments":{
            "comment1":{"aharon hrovitz":"I enjoy too thanks"}
        }
     }
}
